Attrition at D.D.S. Analytics
…
Descriptive Statistics

Significant departures from normality appear prevalent across all variables. A series of density plots will be used for further examination.

## # A tibble: 25 x 26
##    variable     n    na    mean      sd se_mean   IQR skewness kurtosis
##    <chr>    <dbl> <dbl>   <dbl>   <dbl>   <dbl> <dbl>    <dbl>    <dbl>
##  1 YearsSi~   870     0 2.17e+0 3.19e+0 1.08e-1    3     2.00    3.76  
##  2 Perform~   870     0 3.15e+0 3.59e-1 1.22e-2    0     1.94    1.79  
##  3 YearsAt~   870     0 6.96e+0 6.02e+0 2.04e-1    7     1.63    3.40  
##  4 Monthly~   870     0 6.39e+3 4.60e+3 1.56e+2 5342.    1.39    1.16  
##  5 TotalWo~   870     0 1.11e+1 7.51e+0 2.55e-1    9     1.14    1.11  
##  6 JobLevel   870     0 2.04e+0 1.09e+0 3.70e-2    2     1.03    0.458 
##  7 StockOp~   870     0 7.84e-1 8.58e-1 2.91e-2    1     1.03    0.516 
##  8 NumComp~   870     0 2.73e+0 2.52e+0 8.55e-2    3     1.01   -0.0558
##  9 Distanc~   870     0 9.34e+0 8.14e+0 2.76e-1   12     0.915  -0.341 
## 10 YearsIn~   870     0 4.20e+0 3.64e+0 1.23e-1    5     0.877   0.327 
## # ... with 15 more rows, and 17 more variables: p00 <dbl>, p01 <dbl>,
## #   p05 <dbl>, p10 <dbl>, p20 <dbl>, p25 <dbl>, p30 <dbl>, p40 <dbl>,
## #   p50 <dbl>, p60 <dbl>, p70 <dbl>, p75 <dbl>, p80 <dbl>, p90 <dbl>,
## #   p95 <dbl>, p99 <dbl>, p100 <dbl>
…
